<?xml version="1.0" encoding="UTF-8"?>
<!DOCTYPE svg PUBLIC "-//W3C//DTD SVG 1.1//EN" "http://www.w3.org/Graphics/SVG/1.1/DTD/svg11.dtd">
<svg width="180mm" height="120mm" viewBox="0 0 18000 12000" version="1.1" xmlns="http://www.w3.org/2000/svg" xmlns:xlink="http://www.w3.org/1999/xlink" stroke-width="28.222" stroke-linejoin="round" xml:space="preserve">
 <path fill="rgb(255,255,255)" stroke="none" d="M 8987,11987 L -13,11987 -13,-13 17987,-13 17987,11987 8987,11987 Z"/>
 <path fill="none" stroke="rgb(179,179,179)" stroke-linejoin="round" d="M 7461,10488 L 1913,10488 1913,1498 13009,1498 13009,10488 7461,10488 Z"/>
 <path fill="none" stroke="rgb(179,179,179)" stroke-linejoin="round" d="M 1913,1497 L 1913,10487"/>
 <path fill="none" stroke="rgb(179,179,179)" stroke-linejoin="round" d="M 3498,1497 L 3498,10487"/>
 <path fill="none" stroke="rgb(179,179,179)" stroke-linejoin="round" d="M 5083,1497 L 5083,10487"/>
 <path fill="none" stroke="rgb(179,179,179)" stroke-linejoin="round" d="M 6668,1497 L 6668,10487"/>
 <path fill="none" stroke="rgb(179,179,179)" stroke-linejoin="round" d="M 8254,1497 L 8254,10487"/>
 <path fill="none" stroke="rgb(179,179,179)" stroke-linejoin="round" d="M 9838,1497 L 9838,10487"/>
 <path fill="none" stroke="rgb(179,179,179)" stroke-linejoin="round" d="M 11423,1497 L 11423,10487"/>
 <path fill="none" stroke="rgb(179,179,179)" stroke-linejoin="round" d="M 13009,1497 L 13009,10487"/>
 <path fill="none" stroke="rgb(221,221,221)" stroke-linejoin="round" d="M 2390,1497 L 2390,10487"/>
 <path fill="none" stroke="rgb(221,221,221)" stroke-linejoin="round" d="M 2669,1497 L 2669,10487"/>
 <path fill="none" stroke="rgb(221,221,221)" stroke-linejoin="round" d="M 2867,1497 L 2867,10487"/>
 <path fill="none" stroke="rgb(221,221,221)" stroke-linejoin="round" d="M 3021,1497 L 3021,10487"/>
 <path fill="none" stroke="rgb(221,221,221)" stroke-linejoin="round" d="M 3146,1497 L 3146,10487"/>
 <path fill="none" stroke="rgb(221,221,221)" stroke-linejoin="round" d="M 3252,1497 L 3252,10487"/>
 <path fill="none" stroke="rgb(221,221,221)" stroke-linejoin="round" d="M 3344,1497 L 3344,10487"/>
 <path fill="none" stroke="rgb(221,221,221)" stroke-linejoin="round" d="M 3425,1497 L 3425,10487"/>
 <path fill="none" stroke="rgb(221,221,221)" stroke-linejoin="round" d="M 3975,1497 L 3975,10487"/>
 <path fill="none" stroke="rgb(221,221,221)" stroke-linejoin="round" d="M 4254,1497 L 4254,10487"/>
 <path fill="none" stroke="rgb(221,221,221)" stroke-linejoin="round" d="M 4452,1497 L 4452,10487"/>
 <path fill="none" stroke="rgb(221,221,221)" stroke-linejoin="round" d="M 4606,1497 L 4606,10487"/>
 <path fill="none" stroke="rgb(221,221,221)" stroke-linejoin="round" d="M 4731,1497 L 4731,10487"/>
 <path fill="none" stroke="rgb(221,221,221)" stroke-linejoin="round" d="M 4838,1497 L 4838,10487"/>
 <path fill="none" stroke="rgb(221,221,221)" stroke-linejoin="round" d="M 4929,1497 L 4929,10487"/>
 <path fill="none" stroke="rgb(221,221,221)" stroke-linejoin="round" d="M 5011,1497 L 5011,10487"/>
 <path fill="none" stroke="rgb(221,221,221)" stroke-linejoin="round" d="M 5560,1497 L 5560,10487"/>
 <path fill="none" stroke="rgb(221,221,221)" stroke-linejoin="round" d="M 5839,1497 L 5839,10487"/>
 <path fill="none" stroke="rgb(221,221,221)" stroke-linejoin="round" d="M 6038,1497 L 6038,10487"/>
 <path fill="none" stroke="rgb(221,221,221)" stroke-linejoin="round" d="M 6191,1497 L 6191,10487"/>
 <path fill="none" stroke="rgb(221,221,221)" stroke-linejoin="round" d="M 6317,1497 L 6317,10487"/>
 <path fill="none" stroke="rgb(221,221,221)" stroke-linejoin="round" d="M 6423,1497 L 6423,10487"/>
 <path fill="none" stroke="rgb(221,221,221)" stroke-linejoin="round" d="M 6515,1497 L 6515,10487"/>
 <path fill="none" stroke="rgb(221,221,221)" stroke-linejoin="round" d="M 6596,1497 L 6596,10487"/>
 <path fill="none" stroke="rgb(221,221,221)" stroke-linejoin="round" d="M 7146,1497 L 7146,10487"/>
 <path fill="none" stroke="rgb(221,221,221)" stroke-linejoin="round" d="M 7425,1497 L 7425,10487"/>
 <path fill="none" stroke="rgb(221,221,221)" stroke-linejoin="round" d="M 7623,1497 L 7623,10487"/>
 <path fill="none" stroke="rgb(221,221,221)" stroke-linejoin="round" d="M 7776,1497 L 7776,10487"/>
 <path fill="none" stroke="rgb(221,221,221)" stroke-linejoin="round" d="M 7902,1497 L 7902,10487"/>
 <path fill="none" stroke="rgb(221,221,221)" stroke-linejoin="round" d="M 8008,1497 L 8008,10487"/>
 <path fill="none" stroke="rgb(221,221,221)" stroke-linejoin="round" d="M 8100,1497 L 8100,10487"/>
 <path fill="none" stroke="rgb(221,221,221)" stroke-linejoin="round" d="M 8181,1497 L 8181,10487"/>
 <path fill="none" stroke="rgb(221,221,221)" stroke-linejoin="round" d="M 8731,1497 L 8731,10487"/>
 <path fill="none" stroke="rgb(221,221,221)" stroke-linejoin="round" d="M 9009,1497 L 9009,10487"/>
 <path fill="none" stroke="rgb(221,221,221)" stroke-linejoin="round" d="M 9207,1497 L 9207,10487"/>
 <path fill="none" stroke="rgb(221,221,221)" stroke-linejoin="round" d="M 9361,1497 L 9361,10487"/>
 <path fill="none" stroke="rgb(221,221,221)" stroke-linejoin="round" d="M 9486,1497 L 9486,10487"/>
 <path fill="none" stroke="rgb(221,221,221)" stroke-linejoin="round" d="M 9592,1497 L 9592,10487"/>
 <path fill="none" stroke="rgb(221,221,221)" stroke-linejoin="round" d="M 9684,1497 L 9684,10487"/>
 <path fill="none" stroke="rgb(221,221,221)" stroke-linejoin="round" d="M 9765,1497 L 9765,10487"/>
 <path fill="none" stroke="rgb(221,221,221)" stroke-linejoin="round" d="M 10315,1497 L 10315,10487"/>
 <path fill="none" stroke="rgb(221,221,221)" stroke-linejoin="round" d="M 10594,1497 L 10594,10487"/>
 <path fill="none" stroke="rgb(221,221,221)" stroke-linejoin="round" d="M 10792,1497 L 10792,10487"/>
 <path fill="none" stroke="rgb(221,221,221)" stroke-linejoin="round" d="M 10946,1497 L 10946,10487"/>
 <path fill="none" stroke="rgb(221,221,221)" stroke-linejoin="round" d="M 11072,1497 L 11072,10487"/>
 <path fill="none" stroke="rgb(221,221,221)" stroke-linejoin="round" d="M 11178,1497 L 11178,10487"/>
 <path fill="none" stroke="rgb(221,221,221)" stroke-linejoin="round" d="M 11270,1497 L 11270,10487"/>
 <path fill="none" stroke="rgb(221,221,221)" stroke-linejoin="round" d="M 11351,1497 L 11351,10487"/>
 <path fill="none" stroke="rgb(221,221,221)" stroke-linejoin="round" d="M 11900,1497 L 11900,10487"/>
 <path fill="none" stroke="rgb(221,221,221)" stroke-linejoin="round" d="M 12180,1497 L 12180,10487"/>
 <path fill="none" stroke="rgb(221,221,221)" stroke-linejoin="round" d="M 12378,1497 L 12378,10487"/>
 <path fill="none" stroke="rgb(221,221,221)" stroke-linejoin="round" d="M 12531,1497 L 12531,10487"/>
 <path fill="none" stroke="rgb(221,221,221)" stroke-linejoin="round" d="M 12657,1497 L 12657,10487"/>
 <path fill="none" stroke="rgb(221,221,221)" stroke-linejoin="round" d="M 12763,1497 L 12763,10487"/>
 <path fill="none" stroke="rgb(221,221,221)" stroke-linejoin="round" d="M 12855,1497 L 12855,10487"/>
 <path fill="none" stroke="rgb(221,221,221)" stroke-linejoin="round" d="M 12936,1497 L 12936,10487"/>
 <path fill="none" stroke="rgb(179,179,179)" stroke-linejoin="round" d="M 13009,10487 L 1913,10487"/>
 <path fill="none" stroke="rgb(179,179,179)" stroke-linejoin="round" d="M 13009,8988 L 1913,8988"/>
 <path fill="none" stroke="rgb(179,179,179)" stroke-linejoin="round" d="M 13009,7490 L 1913,7490"/>
 <path fill="none" stroke="rgb(179,179,179)" stroke-linejoin="round" d="M 13009,5991 L 1913,5991"/>
 <path fill="none" stroke="rgb(179,179,179)" stroke-linejoin="round" d="M 13009,4494 L 1913,4494"/>
 <path fill="none" stroke="rgb(179,179,179)" stroke-linejoin="round" d="M 13009,2995 L 1913,2995"/>
 <path fill="none" stroke="rgb(179,179,179)" stroke-linejoin="round" d="M 13009,1496 L 1913,1496"/>
 <path fill="none" stroke="rgb(221,221,221)" stroke-linejoin="round" d="M 13009,10035 L 1913,10035"/>
 <path fill="none" stroke="rgb(221,221,221)" stroke-linejoin="round" d="M 13009,9772 L 1913,9772"/>
 <path fill="none" stroke="rgb(221,221,221)" stroke-linejoin="round" d="M 13009,9584 L 1913,9584"/>
 <path fill="none" stroke="rgb(221,221,221)" stroke-linejoin="round" d="M 13009,9439 L 1913,9439"/>
 <path fill="none" stroke="rgb(221,221,221)" stroke-linejoin="round" d="M 13009,9320 L 1913,9320"/>
 <path fill="none" stroke="rgb(221,221,221)" stroke-linejoin="round" d="M 13009,9220 L 1913,9220"/>
 <path fill="none" stroke="rgb(221,221,221)" stroke-linejoin="round" d="M 13009,9133 L 1913,9133"/>
 <path fill="none" stroke="rgb(221,221,221)" stroke-linejoin="round" d="M 13009,9057 L 1913,9057"/>
 <path fill="none" stroke="rgb(221,221,221)" stroke-linejoin="round" d="M 13009,8537 L 1913,8537"/>
 <path fill="none" stroke="rgb(221,221,221)" stroke-linejoin="round" d="M 13009,8273 L 1913,8273"/>
 <path fill="none" stroke="rgb(221,221,221)" stroke-linejoin="round" d="M 13009,8086 L 1913,8086"/>
 <path fill="none" stroke="rgb(221,221,221)" stroke-linejoin="round" d="M 13009,7941 L 1913,7941"/>
 <path fill="none" stroke="rgb(221,221,221)" stroke-linejoin="round" d="M 13009,7822 L 1913,7822"/>
 <path fill="none" stroke="rgb(221,221,221)" stroke-linejoin="round" d="M 13009,7722 L 1913,7722"/>
 <path fill="none" stroke="rgb(221,221,221)" stroke-linejoin="round" d="M 13009,7635 L 1913,7635"/>
 <path fill="none" stroke="rgb(221,221,221)" stroke-linejoin="round" d="M 13009,7558 L 1913,7558"/>
 <path fill="none" stroke="rgb(221,221,221)" stroke-linejoin="round" d="M 13009,7038 L 1913,7038"/>
 <path fill="none" stroke="rgb(221,221,221)" stroke-linejoin="round" d="M 13009,6775 L 1913,6775"/>
 <path fill="none" stroke="rgb(221,221,221)" stroke-linejoin="round" d="M 13009,6587 L 1913,6587"/>
 <path fill="none" stroke="rgb(221,221,221)" stroke-linejoin="round" d="M 13009,6442 L 1913,6442"/>
 <path fill="none" stroke="rgb(221,221,221)" stroke-linejoin="round" d="M 13009,6323 L 1913,6323"/>
 <path fill="none" stroke="rgb(221,221,221)" stroke-linejoin="round" d="M 13009,6223 L 1913,6223"/>
 <path fill="none" stroke="rgb(221,221,221)" stroke-linejoin="round" d="M 13009,6136 L 1913,6136"/>
 <path fill="none" stroke="rgb(221,221,221)" stroke-linejoin="round" d="M 13009,6060 L 1913,6060"/>
 <path fill="none" stroke="rgb(221,221,221)" stroke-linejoin="round" d="M 13009,5541 L 1913,5541"/>
 <path fill="none" stroke="rgb(221,221,221)" stroke-linejoin="round" d="M 13009,5277 L 1913,5277"/>
 <path fill="none" stroke="rgb(221,221,221)" stroke-linejoin="round" d="M 13009,5090 L 1913,5090"/>
 <path fill="none" stroke="rgb(221,221,221)" stroke-linejoin="round" d="M 13009,4945 L 1913,4945"/>
 <path fill="none" stroke="rgb(221,221,221)" stroke-linejoin="round" d="M 13009,4826 L 1913,4826"/>
 <path fill="none" stroke="rgb(221,221,221)" stroke-linejoin="round" d="M 13009,4726 L 1913,4726"/>
 <path fill="none" stroke="rgb(221,221,221)" stroke-linejoin="round" d="M 13009,4639 L 1913,4639"/>
 <path fill="none" stroke="rgb(221,221,221)" stroke-linejoin="round" d="M 13009,4562 L 1913,4562"/>
 <path fill="none" stroke="rgb(221,221,221)" stroke-linejoin="round" d="M 13009,4042 L 1913,4042"/>
 <path fill="none" stroke="rgb(221,221,221)" stroke-linejoin="round" d="M 13009,3779 L 1913,3779"/>
 <path fill="none" stroke="rgb(221,221,221)" stroke-linejoin="round" d="M 13009,3591 L 1913,3591"/>
 <path fill="none" stroke="rgb(221,221,221)" stroke-linejoin="round" d="M 13009,3446 L 1913,3446"/>
 <path fill="none" stroke="rgb(221,221,221)" stroke-linejoin="round" d="M 13009,3327 L 1913,3327"/>
 <path fill="none" stroke="rgb(221,221,221)" stroke-linejoin="round" d="M 13009,3227 L 1913,3227"/>
 <path fill="none" stroke="rgb(221,221,221)" stroke-linejoin="round" d="M 13009,3140 L 1913,3140"/>
 <path fill="none" stroke="rgb(221,221,221)" stroke-linejoin="round" d="M 13009,3064 L 1913,3064"/>
 <path fill="none" stroke="rgb(221,221,221)" stroke-linejoin="round" d="M 13009,2544 L 1913,2544"/>
 <path fill="none" stroke="rgb(221,221,221)" stroke-linejoin="round" d="M 13009,2280 L 1913,2280"/>
 <path fill="none" stroke="rgb(221,221,221)" stroke-linejoin="round" d="M 13009,2093 L 1913,2093"/>
 <path fill="none" stroke="rgb(221,221,221)" stroke-linejoin="round" d="M 13009,1948 L 1913,1948"/>
 <path fill="none" stroke="rgb(221,221,221)" stroke-linejoin="round" d="M 13009,1829 L 1913,1829"/>
 <path fill="none" stroke="rgb(221,221,221)" stroke-linejoin="round" d="M 13009,1729 L 1913,1729"/>
 <path fill="none" stroke="rgb(221,221,221)" stroke-linejoin="round" d="M 13009,1642 L 1913,1642"/>
 <path fill="none" stroke="rgb(221,221,221)" stroke-linejoin="round" d="M 13009,1565 L 1913,1565"/>
 <path fill="none" stroke="rgb(179,179,179)" stroke-linejoin="round" d="M 1913,10637 L 1913,10487"/>
 <path fill="none" stroke="rgb(179,179,179)" stroke-linejoin="round" d="M 1913,10637 L 1913,10487"/>
 <path fill="none" stroke="rgb(179,179,179)" stroke-linejoin="round" d="M 3498,10637 L 3498,10487"/>
 <path fill="none" stroke="rgb(179,179,179)" stroke-linejoin="round" d="M 3498,10637 L 3498,10487"/>
 <path fill="none" stroke="rgb(179,179,179)" stroke-linejoin="round" d="M 5083,10637 L 5083,10487"/>
 <path fill="none" stroke="rgb(179,179,179)" stroke-linejoin="round" d="M 5083,10637 L 5083,10487"/>
 <path fill="none" stroke="rgb(179,179,179)" stroke-linejoin="round" d="M 6668,10637 L 6668,10487"/>
 <path fill="none" stroke="rgb(179,179,179)" stroke-linejoin="round" d="M 6668,10637 L 6668,10487"/>
 <path fill="none" stroke="rgb(179,179,179)" stroke-linejoin="round" d="M 8254,10637 L 8254,10487"/>
 <path fill="none" stroke="rgb(179,179,179)" stroke-linejoin="round" d="M 8254,10637 L 8254,10487"/>
 <path fill="none" stroke="rgb(179,179,179)" stroke-linejoin="round" d="M 9838,10637 L 9838,10487"/>
 <path fill="none" stroke="rgb(179,179,179)" stroke-linejoin="round" d="M 9838,10637 L 9838,10487"/>
 <path fill="none" stroke="rgb(179,179,179)" stroke-linejoin="round" d="M 11423,10637 L 11423,10487"/>
 <path fill="none" stroke="rgb(179,179,179)" stroke-linejoin="round" d="M 11423,10637 L 11423,10487"/>
 <path fill="none" stroke="rgb(179,179,179)" stroke-linejoin="round" d="M 13009,10637 L 13009,10487"/>
 <path fill="none" stroke="rgb(179,179,179)" stroke-linejoin="round" d="M 13009,10637 L 13009,10487"/>
 <path fill="none" stroke="rgb(179,179,179)" stroke-linejoin="round" d="M 1913,10487 L 13009,10487"/>
 <path fill="none" stroke="rgb(179,179,179)" stroke-linejoin="round" d="M 1763,10487 L 1913,10487"/>
 <path fill="none" stroke="rgb(179,179,179)" stroke-linejoin="round" d="M 1763,10487 L 1913,10487"/>
 <path fill="none" stroke="rgb(179,179,179)" stroke-linejoin="round" d="M 1763,8988 L 1913,8988"/>
 <path fill="none" stroke="rgb(179,179,179)" stroke-linejoin="round" d="M 1763,8988 L 1913,8988"/>
 <path fill="none" stroke="rgb(179,179,179)" stroke-linejoin="round" d="M 1763,7490 L 1913,7490"/>
 <path fill="none" stroke="rgb(179,179,179)" stroke-linejoin="round" d="M 1763,7490 L 1913,7490"/>
 <path fill="none" stroke="rgb(179,179,179)" stroke-linejoin="round" d="M 1763,5991 L 1913,5991"/>
 <path fill="none" stroke="rgb(179,179,179)" stroke-linejoin="round" d="M 1763,5991 L 1913,5991"/>
 <path fill="none" stroke="rgb(179,179,179)" stroke-linejoin="round" d="M 1763,4494 L 1913,4494"/>
 <path fill="none" stroke="rgb(179,179,179)" stroke-linejoin="round" d="M 1763,4494 L 1913,4494"/>
 <path fill="none" stroke="rgb(179,179,179)" stroke-linejoin="round" d="M 1763,2995 L 1913,2995"/>
 <path fill="none" stroke="rgb(179,179,179)" stroke-linejoin="round" d="M 1763,2995 L 1913,2995"/>
 <path fill="none" stroke="rgb(179,179,179)" stroke-linejoin="round" d="M 1763,1497 L 1913,1497"/>
 <path fill="none" stroke="rgb(179,179,179)" stroke-linejoin="round" d="M 1763,1497 L 1913,1497"/>
 <path fill="none" stroke="rgb(179,179,179)" stroke-linejoin="round" d="M 1913,10487 L 1913,1497"/>
 <path fill="none" stroke="rgb(0,0,0)" stroke-width="80" stroke-linejoin="round" stroke-dasharray="80,457" d="M 1913,4562 L 3132,4562 4336,4562 5488,4562 6190,4562 6813,4562 7566,4562 8102,4562 8620,4562 9285,4562 9780,4562 10269,4562 10911,4562 11394,4562 11875,4562 12509,4562 12988,4562"/>
 <path fill="none" stroke="rgb(54,144,244)" stroke-width="40" stroke-linejoin="round" d="M 1913,3326 L 3132,4204 4336,4974 5488,5643 6190,6020 6813,6343 7566,6722 8102,6986 8620,7237 9285,7557 9780,7795 10269,8029 10911,8334 11394,8563 11875,8791 12509,9090 12988,9317"/>
 <path fill="none" stroke="rgb(53,82,105)" stroke-width="40" stroke-linejoin="round" d="M 1913,3078 L 2249,3340 3855,4454 5242,5305 6035,5750 6705,6095 7505,6512 8057,6777 8591,7051 9267,7379 9767,7617 10261,7854 10906,8161 11389,8375 11872,8612 12507,8919 12987,9149"/>
 <path fill="none" stroke="rgb(19,37,51)" stroke-width="40" stroke-linejoin="round" d="M 1913,2409 L 2562,2915 3969,3934 5286,4798 6247,5369 7242,5917 7884,6251 8471,6549 9194,6907 9716,7161 10225,7407 10883,7723 11374,7957 11861,8189 12500,8492 12982,8720"/>
 <text class="SVGTextShape"><tspan class="TextParagraph" font-family="Serif, serif" font-size="353px" font-weight="400"><tspan class="TextPosition" x="1529" y="11107"><tspan fill="rgb(0,0,0)" stroke="none" style="white-space: pre">1E+0</tspan></tspan></tspan></text>
 <text class="SVGTextShape"><tspan class="TextParagraph" font-family="Serif, serif" font-size="353px" font-weight="400"><tspan class="TextPosition" x="3114" y="11107"><tspan fill="rgb(0,0,0)" stroke="none" style="white-space: pre">1E+1</tspan></tspan></tspan></text>
 <text class="SVGTextShape"><tspan class="TextParagraph" font-family="Serif, serif" font-size="353px" font-weight="400"><tspan class="TextPosition" x="4699" y="11107"><tspan fill="rgb(0,0,0)" stroke="none" style="white-space: pre">1E+2</tspan></tspan></tspan></text>
 <text class="SVGTextShape"><tspan class="TextParagraph" font-family="Serif, serif" font-size="353px" font-weight="400"><tspan class="TextPosition" x="6284" y="11107"><tspan fill="rgb(0,0,0)" stroke="none" style="white-space: pre">1E+3</tspan></tspan></tspan></text>
 <text class="SVGTextShape"><tspan class="TextParagraph" font-family="Serif, serif" font-size="353px" font-weight="400"><tspan class="TextPosition" x="7870" y="11107"><tspan fill="rgb(0,0,0)" stroke="none" style="white-space: pre">1E+4</tspan></tspan></tspan></text>
 <text class="SVGTextShape"><tspan class="TextParagraph" font-family="Serif, serif" font-size="353px" font-weight="400"><tspan class="TextPosition" x="9454" y="11107"><tspan fill="rgb(0,0,0)" stroke="none" style="white-space: pre">1E+5</tspan></tspan></tspan></text>
 <text class="SVGTextShape"><tspan class="TextParagraph" font-family="Serif, serif" font-size="353px" font-weight="400"><tspan class="TextPosition" x="11039" y="11107"><tspan fill="rgb(0,0,0)" stroke="none" style="white-space: pre">1E+6</tspan></tspan></tspan></text>
 <text class="SVGTextShape"><tspan class="TextParagraph" font-family="Serif, serif" font-size="353px" font-weight="400"><tspan class="TextPosition" x="12625" y="11107"><tspan fill="rgb(0,0,0)" stroke="none" style="white-space: pre">1E+7</tspan></tspan></tspan></text>
 <text class="SVGTextShape"><tspan class="TextParagraph" font-family="Serif, serif" font-size="353px" font-weight="400"><tspan class="TextPosition" x="975" y="10619"><tspan fill="rgb(0,0,0)" stroke="none" style="white-space: pre">1E-3</tspan></tspan></tspan></text>
 <text class="SVGTextShape"><tspan class="TextParagraph" font-family="Serif, serif" font-size="353px" font-weight="400"><tspan class="TextPosition" x="975" y="9120"><tspan fill="rgb(0,0,0)" stroke="none" style="white-space: pre">1E-2</tspan></tspan></tspan></text>
 <text class="SVGTextShape"><tspan class="TextParagraph" font-family="Serif, serif" font-size="353px" font-weight="400"><tspan class="TextPosition" x="975" y="7622"><tspan fill="rgb(0,0,0)" stroke="none" style="white-space: pre">1E-1</tspan></tspan></tspan></text>
 <text class="SVGTextShape"><tspan class="TextParagraph" font-family="Serif, serif" font-size="353px" font-weight="400"><tspan class="TextPosition" x="896" y="6123"><tspan fill="rgb(0,0,0)" stroke="none" style="white-space: pre">1E+0</tspan></tspan></tspan></text>
 <text class="SVGTextShape"><tspan class="TextParagraph" font-family="Serif, serif" font-size="353px" font-weight="400"><tspan class="TextPosition" x="896" y="4626"><tspan fill="rgb(0,0,0)" stroke="none" style="white-space: pre">1E+1</tspan></tspan></tspan></text>
 <text class="SVGTextShape"><tspan class="TextParagraph" font-family="Serif, serif" font-size="353px" font-weight="400"><tspan class="TextPosition" x="896" y="3127"><tspan fill="rgb(0,0,0)" stroke="none" style="white-space: pre">1E+2</tspan></tspan></tspan></text>
 <text class="SVGTextShape"><tspan class="TextParagraph" font-family="Serif, serif" font-size="353px" font-weight="400"><tspan class="TextPosition" x="896" y="1629"><tspan fill="rgb(0,0,0)" stroke="none" style="white-space: pre">1E+3</tspan></tspan></tspan></text>
 <text class="SVGTextShape"><tspan class="TextParagraph" font-family="Serif, serif" font-size="459px" font-weight="400"><tspan class="TextPosition" x="3175" y="988"><tspan fill="rgb(0,0,0)" stroke="none" style="white-space: pre">Accuracy of limit for a target safe allocation</tspan></tspan></tspan></text>
 <path fill="none" stroke="rgb(19,37,51)" stroke-width="40" stroke-linejoin="round" d="M 13439,5361 L 15039,5361"/>
 <path fill="none" stroke="rgb(53,82,105)" stroke-width="40" stroke-linejoin="round" d="M 13439,5856 L 15039,5856"/>
 <path fill="none" stroke="rgb(54,144,244)" stroke-width="40" stroke-linejoin="round" d="M 13439,6350 L 15039,6350"/>
 <path fill="none" stroke="rgb(0,0,0)" stroke-width="80" stroke-linejoin="round" stroke-dasharray="80,457" d="M 13439,6845 L 15039,6845"/>
 <text class="SVGTextShape"><tspan class="TextParagraph" font-family="Serif, serif" font-size="353px" font-weight="400"><tspan class="TextPosition" x="15139" y="5493"><tspan fill="rgb(0,0,0)" stroke="none" style="white-space: pre">t &lt; 1E-50, p=1E-4</tspan></tspan></tspan></text>
 <text class="SVGTextShape"><tspan class="TextParagraph" font-family="Serif, serif" font-size="353px" font-weight="400"><tspan class="TextPosition" x="15139" y="5988"><tspan fill="rgb(0,0,0)" stroke="none" style="white-space: pre">t &lt; 4E-15, p=1E-4</tspan></tspan></tspan></text>
 <text class="SVGTextShape"><tspan class="TextParagraph" font-family="Serif, serif" font-size="353px" font-weight="400"><tspan class="TextPosition" x="15139" y="6482"><tspan fill="rgb(0,0,0)" stroke="none" style="white-space: pre">t &lt; 1E-9, p=1E-4</tspan></tspan></tspan></text>
 <text class="SVGTextShape"><tspan class="TextParagraph" font-family="Serif, serif" font-size="353px" font-weight="400"><tspan class="TextPosition" x="15139" y="6977"><tspan fill="rgb(0,0,0)" stroke="none" style="white-space: pre">l/N=10</tspan></tspan></tspan></text>
 <text class="SVGTextShape"><tspan class="TextParagraph" font-family="Serif, serif" font-size="318px" font-weight="400"><tspan class="TextPosition" x="6649" y="11611"><tspan fill="rgb(0,0,0)" stroke="none" style="white-space: pre">N (in kw)</tspan></tspan></tspan></text>
 <text class="SVGTextShape" transform="rotate(-90 191 -5329)"><tspan class="TextParagraph" font-family="Serif, serif" font-size="318px" font-weight="400"><tspan class="TextPosition" x="693" y="6385"><tspan fill="rgb(0,0,0)" stroke="none" style="white-space: pre">(l-N)/N</tspan></tspan></tspan></text>
</svg>