<?xml version="1.0" encoding="UTF-8"?>
<!DOCTYPE svg PUBLIC "-//W3C//DTD SVG 1.1//EN" "http://www.w3.org/Graphics/SVG/1.1/DTD/svg11.dtd">
<svg width="180mm" height="120mm" viewBox="0 0 18000 12000" version="1.1" xmlns="http://www.w3.org/2000/svg" xmlns:xlink="http://www.w3.org/1999/xlink" stroke-width="28.222" stroke-linejoin="round" xml:space="preserve">
 <path fill="rgb(255,255,255)" stroke="none" d="M 8987,11987 L -13,11987 -13,-13 17987,-13 17987,11987 8987,11987 Z"/>
 <path fill="none" stroke="rgb(179,179,179)" stroke-linejoin="round" d="M 8306,10221 L 2244,10221 2244,1501 14367,1501 14367,10221 8306,10221 Z"/>
 <path fill="none" stroke="rgb(179,179,179)" stroke-linejoin="round" d="M 2244,1500 L 2244,10220"/>
 <path fill="none" stroke="rgb(179,179,179)" stroke-linejoin="round" d="M 3976,1500 L 3976,10220"/>
 <path fill="none" stroke="rgb(179,179,179)" stroke-linejoin="round" d="M 5708,1500 L 5708,10220"/>
 <path fill="none" stroke="rgb(179,179,179)" stroke-linejoin="round" d="M 7440,1500 L 7440,10220"/>
 <path fill="none" stroke="rgb(179,179,179)" stroke-linejoin="round" d="M 9171,1500 L 9171,10220"/>
 <path fill="none" stroke="rgb(179,179,179)" stroke-linejoin="round" d="M 10903,1500 L 10903,10220"/>
 <path fill="none" stroke="rgb(179,179,179)" stroke-linejoin="round" d="M 12635,1500 L 12635,10220"/>
 <path fill="none" stroke="rgb(179,179,179)" stroke-linejoin="round" d="M 14367,1500 L 14367,10220"/>
 <path fill="none" stroke="rgb(221,221,221)" stroke-linejoin="round" d="M 2765,1500 L 2765,10220"/>
 <path fill="none" stroke="rgb(221,221,221)" stroke-linejoin="round" d="M 3070,1500 L 3070,10220"/>
 <path fill="none" stroke="rgb(221,221,221)" stroke-linejoin="round" d="M 3286,1500 L 3286,10220"/>
 <path fill="none" stroke="rgb(221,221,221)" stroke-linejoin="round" d="M 3454,1500 L 3454,10220"/>
 <path fill="none" stroke="rgb(221,221,221)" stroke-linejoin="round" d="M 3591,1500 L 3591,10220"/>
 <path fill="none" stroke="rgb(221,221,221)" stroke-linejoin="round" d="M 3707,1500 L 3707,10220"/>
 <path fill="none" stroke="rgb(221,221,221)" stroke-linejoin="round" d="M 3808,1500 L 3808,10220"/>
 <path fill="none" stroke="rgb(221,221,221)" stroke-linejoin="round" d="M 3896,1500 L 3896,10220"/>
 <path fill="none" stroke="rgb(221,221,221)" stroke-linejoin="round" d="M 4497,1500 L 4497,10220"/>
 <path fill="none" stroke="rgb(221,221,221)" stroke-linejoin="round" d="M 4802,1500 L 4802,10220"/>
 <path fill="none" stroke="rgb(221,221,221)" stroke-linejoin="round" d="M 5018,1500 L 5018,10220"/>
 <path fill="none" stroke="rgb(221,221,221)" stroke-linejoin="round" d="M 5186,1500 L 5186,10220"/>
 <path fill="none" stroke="rgb(221,221,221)" stroke-linejoin="round" d="M 5323,1500 L 5323,10220"/>
 <path fill="none" stroke="rgb(221,221,221)" stroke-linejoin="round" d="M 5439,1500 L 5439,10220"/>
 <path fill="none" stroke="rgb(221,221,221)" stroke-linejoin="round" d="M 5540,1500 L 5540,10220"/>
 <path fill="none" stroke="rgb(221,221,221)" stroke-linejoin="round" d="M 5628,1500 L 5628,10220"/>
 <path fill="none" stroke="rgb(221,221,221)" stroke-linejoin="round" d="M 6229,1500 L 6229,10220"/>
 <path fill="none" stroke="rgb(221,221,221)" stroke-linejoin="round" d="M 6534,1500 L 6534,10220"/>
 <path fill="none" stroke="rgb(221,221,221)" stroke-linejoin="round" d="M 6750,1500 L 6750,10220"/>
 <path fill="none" stroke="rgb(221,221,221)" stroke-linejoin="round" d="M 6918,1500 L 6918,10220"/>
 <path fill="none" stroke="rgb(221,221,221)" stroke-linejoin="round" d="M 7055,1500 L 7055,10220"/>
 <path fill="none" stroke="rgb(221,221,221)" stroke-linejoin="round" d="M 7171,1500 L 7171,10220"/>
 <path fill="none" stroke="rgb(221,221,221)" stroke-linejoin="round" d="M 7272,1500 L 7272,10220"/>
 <path fill="none" stroke="rgb(221,221,221)" stroke-linejoin="round" d="M 7360,1500 L 7360,10220"/>
 <path fill="none" stroke="rgb(221,221,221)" stroke-linejoin="round" d="M 7961,1500 L 7961,10220"/>
 <path fill="none" stroke="rgb(221,221,221)" stroke-linejoin="round" d="M 8266,1500 L 8266,10220"/>
 <path fill="none" stroke="rgb(221,221,221)" stroke-linejoin="round" d="M 8482,1500 L 8482,10220"/>
 <path fill="none" stroke="rgb(221,221,221)" stroke-linejoin="round" d="M 8650,1500 L 8650,10220"/>
 <path fill="none" stroke="rgb(221,221,221)" stroke-linejoin="round" d="M 8787,1500 L 8787,10220"/>
 <path fill="none" stroke="rgb(221,221,221)" stroke-linejoin="round" d="M 8903,1500 L 8903,10220"/>
 <path fill="none" stroke="rgb(221,221,221)" stroke-linejoin="round" d="M 9003,1500 L 9003,10220"/>
 <path fill="none" stroke="rgb(221,221,221)" stroke-linejoin="round" d="M 9091,1500 L 9091,10220"/>
 <path fill="none" stroke="rgb(221,221,221)" stroke-linejoin="round" d="M 9692,1500 L 9692,10220"/>
 <path fill="none" stroke="rgb(221,221,221)" stroke-linejoin="round" d="M 9997,1500 L 9997,10220"/>
 <path fill="none" stroke="rgb(221,221,221)" stroke-linejoin="round" d="M 10213,1500 L 10213,10220"/>
 <path fill="none" stroke="rgb(221,221,221)" stroke-linejoin="round" d="M 10381,1500 L 10381,10220"/>
 <path fill="none" stroke="rgb(221,221,221)" stroke-linejoin="round" d="M 10518,1500 L 10518,10220"/>
 <path fill="none" stroke="rgb(221,221,221)" stroke-linejoin="round" d="M 10634,1500 L 10634,10220"/>
 <path fill="none" stroke="rgb(221,221,221)" stroke-linejoin="round" d="M 10735,1500 L 10735,10220"/>
 <path fill="none" stroke="rgb(221,221,221)" stroke-linejoin="round" d="M 10823,1500 L 10823,10220"/>
 <path fill="none" stroke="rgb(221,221,221)" stroke-linejoin="round" d="M 11424,1500 L 11424,10220"/>
 <path fill="none" stroke="rgb(221,221,221)" stroke-linejoin="round" d="M 11729,1500 L 11729,10220"/>
 <path fill="none" stroke="rgb(221,221,221)" stroke-linejoin="round" d="M 11945,1500 L 11945,10220"/>
 <path fill="none" stroke="rgb(221,221,221)" stroke-linejoin="round" d="M 12113,1500 L 12113,10220"/>
 <path fill="none" stroke="rgb(221,221,221)" stroke-linejoin="round" d="M 12250,1500 L 12250,10220"/>
 <path fill="none" stroke="rgb(221,221,221)" stroke-linejoin="round" d="M 12366,1500 L 12366,10220"/>
 <path fill="none" stroke="rgb(221,221,221)" stroke-linejoin="round" d="M 12467,1500 L 12467,10220"/>
 <path fill="none" stroke="rgb(221,221,221)" stroke-linejoin="round" d="M 12555,1500 L 12555,10220"/>
 <path fill="none" stroke="rgb(221,221,221)" stroke-linejoin="round" d="M 13156,1500 L 13156,10220"/>
 <path fill="none" stroke="rgb(221,221,221)" stroke-linejoin="round" d="M 13461,1500 L 13461,10220"/>
 <path fill="none" stroke="rgb(221,221,221)" stroke-linejoin="round" d="M 13677,1500 L 13677,10220"/>
 <path fill="none" stroke="rgb(221,221,221)" stroke-linejoin="round" d="M 13845,1500 L 13845,10220"/>
 <path fill="none" stroke="rgb(221,221,221)" stroke-linejoin="round" d="M 13982,1500 L 13982,10220"/>
 <path fill="none" stroke="rgb(221,221,221)" stroke-linejoin="round" d="M 14098,1500 L 14098,10220"/>
 <path fill="none" stroke="rgb(221,221,221)" stroke-linejoin="round" d="M 14199,1500 L 14199,10220"/>
 <path fill="none" stroke="rgb(221,221,221)" stroke-linejoin="round" d="M 14287,1500 L 14287,10220"/>
 <path fill="none" stroke="rgb(179,179,179)" stroke-linejoin="round" d="M 14367,10220 L 2244,10220"/>
 <path fill="none" stroke="rgb(179,179,179)" stroke-linejoin="round" d="M 14367,8974 L 2244,8974"/>
 <path fill="none" stroke="rgb(179,179,179)" stroke-linejoin="round" d="M 14367,7728 L 2244,7728"/>
 <path fill="none" stroke="rgb(179,179,179)" stroke-linejoin="round" d="M 14367,6482 L 2244,6482"/>
 <path fill="none" stroke="rgb(179,179,179)" stroke-linejoin="round" d="M 14367,5237 L 2244,5237"/>
 <path fill="none" stroke="rgb(179,179,179)" stroke-linejoin="round" d="M 14367,3991 L 2244,3991"/>
 <path fill="none" stroke="rgb(179,179,179)" stroke-linejoin="round" d="M 14367,2745 L 2244,2745"/>
 <path fill="none" stroke="rgb(179,179,179)" stroke-linejoin="round" d="M 14367,1500 L 2244,1500"/>
 <path fill="none" stroke="rgb(221,221,221)" stroke-linejoin="round" d="M 14367,9844 L 2244,9844"/>
 <path fill="none" stroke="rgb(221,221,221)" stroke-linejoin="round" d="M 14367,9625 L 2244,9625"/>
 <path fill="none" stroke="rgb(221,221,221)" stroke-linejoin="round" d="M 14367,9469 L 2244,9469"/>
 <path fill="none" stroke="rgb(221,221,221)" stroke-linejoin="round" d="M 14367,9349 L 2244,9349"/>
 <path fill="none" stroke="rgb(221,221,221)" stroke-linejoin="round" d="M 14367,9250 L 2244,9250"/>
 <path fill="none" stroke="rgb(221,221,221)" stroke-linejoin="round" d="M 14367,9167 L 2244,9167"/>
 <path fill="none" stroke="rgb(221,221,221)" stroke-linejoin="round" d="M 14367,9094 L 2244,9094"/>
 <path fill="none" stroke="rgb(221,221,221)" stroke-linejoin="round" d="M 14367,9031 L 2244,9031"/>
 <path fill="none" stroke="rgb(221,221,221)" stroke-linejoin="round" d="M 14367,8599 L 2244,8599"/>
 <path fill="none" stroke="rgb(221,221,221)" stroke-linejoin="round" d="M 14367,8379 L 2244,8379"/>
 <path fill="none" stroke="rgb(221,221,221)" stroke-linejoin="round" d="M 14367,8224 L 2244,8224"/>
 <path fill="none" stroke="rgb(221,221,221)" stroke-linejoin="round" d="M 14367,8103 L 2244,8103"/>
 <path fill="none" stroke="rgb(221,221,221)" stroke-linejoin="round" d="M 14367,8004 L 2244,8004"/>
 <path fill="none" stroke="rgb(221,221,221)" stroke-linejoin="round" d="M 14367,7921 L 2244,7921"/>
 <path fill="none" stroke="rgb(221,221,221)" stroke-linejoin="round" d="M 14367,7849 L 2244,7849"/>
 <path fill="none" stroke="rgb(221,221,221)" stroke-linejoin="round" d="M 14367,7785 L 2244,7785"/>
 <path fill="none" stroke="rgb(221,221,221)" stroke-linejoin="round" d="M 14367,7353 L 2244,7353"/>
 <path fill="none" stroke="rgb(221,221,221)" stroke-linejoin="round" d="M 14367,7133 L 2244,7133"/>
 <path fill="none" stroke="rgb(221,221,221)" stroke-linejoin="round" d="M 14367,6978 L 2244,6978"/>
 <path fill="none" stroke="rgb(221,221,221)" stroke-linejoin="round" d="M 14367,6857 L 2244,6857"/>
 <path fill="none" stroke="rgb(221,221,221)" stroke-linejoin="round" d="M 14367,6758 L 2244,6758"/>
 <path fill="none" stroke="rgb(221,221,221)" stroke-linejoin="round" d="M 14367,6675 L 2244,6675"/>
 <path fill="none" stroke="rgb(221,221,221)" stroke-linejoin="round" d="M 14367,6603 L 2244,6603"/>
 <path fill="none" stroke="rgb(221,221,221)" stroke-linejoin="round" d="M 14367,6539 L 2244,6539"/>
 <path fill="none" stroke="rgb(221,221,221)" stroke-linejoin="round" d="M 14367,6107 L 2244,6107"/>
 <path fill="none" stroke="rgb(221,221,221)" stroke-linejoin="round" d="M 14367,5889 L 2244,5889"/>
 <path fill="none" stroke="rgb(221,221,221)" stroke-linejoin="round" d="M 14367,5733 L 2244,5733"/>
 <path fill="none" stroke="rgb(221,221,221)" stroke-linejoin="round" d="M 14367,5612 L 2244,5612"/>
 <path fill="none" stroke="rgb(221,221,221)" stroke-linejoin="round" d="M 14367,5513 L 2244,5513"/>
 <path fill="none" stroke="rgb(221,221,221)" stroke-linejoin="round" d="M 14367,5430 L 2244,5430"/>
 <path fill="none" stroke="rgb(221,221,221)" stroke-linejoin="round" d="M 14367,5358 L 2244,5358"/>
 <path fill="none" stroke="rgb(221,221,221)" stroke-linejoin="round" d="M 14367,5294 L 2244,5294"/>
 <path fill="none" stroke="rgb(221,221,221)" stroke-linejoin="round" d="M 14367,4862 L 2244,4862"/>
 <path fill="none" stroke="rgb(221,221,221)" stroke-linejoin="round" d="M 14367,4643 L 2244,4643"/>
 <path fill="none" stroke="rgb(221,221,221)" stroke-linejoin="round" d="M 14367,4487 L 2244,4487"/>
 <path fill="none" stroke="rgb(221,221,221)" stroke-linejoin="round" d="M 14367,4366 L 2244,4366"/>
 <path fill="none" stroke="rgb(221,221,221)" stroke-linejoin="round" d="M 14367,4268 L 2244,4268"/>
 <path fill="none" stroke="rgb(221,221,221)" stroke-linejoin="round" d="M 14367,4184 L 2244,4184"/>
 <path fill="none" stroke="rgb(221,221,221)" stroke-linejoin="round" d="M 14367,4112 L 2244,4112"/>
 <path fill="none" stroke="rgb(221,221,221)" stroke-linejoin="round" d="M 14367,4048 L 2244,4048"/>
 <path fill="none" stroke="rgb(221,221,221)" stroke-linejoin="round" d="M 14367,3616 L 2244,3616"/>
 <path fill="none" stroke="rgb(221,221,221)" stroke-linejoin="round" d="M 14367,3397 L 2244,3397"/>
 <path fill="none" stroke="rgb(221,221,221)" stroke-linejoin="round" d="M 14367,3241 L 2244,3241"/>
 <path fill="none" stroke="rgb(221,221,221)" stroke-linejoin="round" d="M 14367,3120 L 2244,3120"/>
 <path fill="none" stroke="rgb(221,221,221)" stroke-linejoin="round" d="M 14367,3022 L 2244,3022"/>
 <path fill="none" stroke="rgb(221,221,221)" stroke-linejoin="round" d="M 14367,2938 L 2244,2938"/>
 <path fill="none" stroke="rgb(221,221,221)" stroke-linejoin="round" d="M 14367,2866 L 2244,2866"/>
 <path fill="none" stroke="rgb(221,221,221)" stroke-linejoin="round" d="M 14367,2802 L 2244,2802"/>
 <path fill="none" stroke="rgb(221,221,221)" stroke-linejoin="round" d="M 14367,2370 L 2244,2370"/>
 <path fill="none" stroke="rgb(221,221,221)" stroke-linejoin="round" d="M 14367,2151 L 2244,2151"/>
 <path fill="none" stroke="rgb(221,221,221)" stroke-linejoin="round" d="M 14367,1995 L 2244,1995"/>
 <path fill="none" stroke="rgb(221,221,221)" stroke-linejoin="round" d="M 14367,1875 L 2244,1875"/>
 <path fill="none" stroke="rgb(221,221,221)" stroke-linejoin="round" d="M 14367,1776 L 2244,1776"/>
 <path fill="none" stroke="rgb(221,221,221)" stroke-linejoin="round" d="M 14367,1692 L 2244,1692"/>
 <path fill="none" stroke="rgb(221,221,221)" stroke-linejoin="round" d="M 14367,1620 L 2244,1620"/>
 <path fill="none" stroke="rgb(221,221,221)" stroke-linejoin="round" d="M 14367,1557 L 2244,1557"/>
 <path fill="none" stroke="rgb(179,179,179)" stroke-linejoin="round" d="M 2244,10370 L 2244,10220"/>
 <path fill="none" stroke="rgb(179,179,179)" stroke-linejoin="round" d="M 2244,10370 L 2244,10220"/>
 <path fill="none" stroke="rgb(179,179,179)" stroke-linejoin="round" d="M 3976,10370 L 3976,10220"/>
 <path fill="none" stroke="rgb(179,179,179)" stroke-linejoin="round" d="M 3976,10370 L 3976,10220"/>
 <path fill="none" stroke="rgb(179,179,179)" stroke-linejoin="round" d="M 5708,10370 L 5708,10220"/>
 <path fill="none" stroke="rgb(179,179,179)" stroke-linejoin="round" d="M 5708,10370 L 5708,10220"/>
 <path fill="none" stroke="rgb(179,179,179)" stroke-linejoin="round" d="M 7440,10370 L 7440,10220"/>
 <path fill="none" stroke="rgb(179,179,179)" stroke-linejoin="round" d="M 7440,10370 L 7440,10220"/>
 <path fill="none" stroke="rgb(179,179,179)" stroke-linejoin="round" d="M 9171,10370 L 9171,10220"/>
 <path fill="none" stroke="rgb(179,179,179)" stroke-linejoin="round" d="M 9171,10370 L 9171,10220"/>
 <path fill="none" stroke="rgb(179,179,179)" stroke-linejoin="round" d="M 10902,10370 L 10902,10220"/>
 <path fill="none" stroke="rgb(179,179,179)" stroke-linejoin="round" d="M 10902,10370 L 10902,10220"/>
 <path fill="none" stroke="rgb(179,179,179)" stroke-linejoin="round" d="M 12635,10370 L 12635,10220"/>
 <path fill="none" stroke="rgb(179,179,179)" stroke-linejoin="round" d="M 12635,10370 L 12635,10220"/>
 <path fill="none" stroke="rgb(179,179,179)" stroke-linejoin="round" d="M 14367,10370 L 14367,10220"/>
 <path fill="none" stroke="rgb(179,179,179)" stroke-linejoin="round" d="M 14367,10370 L 14367,10220"/>
 <path fill="none" stroke="rgb(179,179,179)" stroke-linejoin="round" d="M 2244,10220 L 14367,10220"/>
 <path fill="none" stroke="rgb(179,179,179)" stroke-linejoin="round" d="M 2094,10220 L 2244,10220"/>
 <path fill="none" stroke="rgb(179,179,179)" stroke-linejoin="round" d="M 2094,10220 L 2244,10220"/>
 <path fill="none" stroke="rgb(179,179,179)" stroke-linejoin="round" d="M 2094,8974 L 2244,8974"/>
 <path fill="none" stroke="rgb(179,179,179)" stroke-linejoin="round" d="M 2094,8974 L 2244,8974"/>
 <path fill="none" stroke="rgb(179,179,179)" stroke-linejoin="round" d="M 2094,7728 L 2244,7728"/>
 <path fill="none" stroke="rgb(179,179,179)" stroke-linejoin="round" d="M 2094,7728 L 2244,7728"/>
 <path fill="none" stroke="rgb(179,179,179)" stroke-linejoin="round" d="M 2094,6482 L 2244,6482"/>
 <path fill="none" stroke="rgb(179,179,179)" stroke-linejoin="round" d="M 2094,6482 L 2244,6482"/>
 <path fill="none" stroke="rgb(179,179,179)" stroke-linejoin="round" d="M 2094,5237 L 2244,5237"/>
 <path fill="none" stroke="rgb(179,179,179)" stroke-linejoin="round" d="M 2094,5237 L 2244,5237"/>
 <path fill="none" stroke="rgb(179,179,179)" stroke-linejoin="round" d="M 2094,3991 L 2244,3991"/>
 <path fill="none" stroke="rgb(179,179,179)" stroke-linejoin="round" d="M 2094,3991 L 2244,3991"/>
 <path fill="none" stroke="rgb(179,179,179)" stroke-linejoin="round" d="M 2094,2745 L 2244,2745"/>
 <path fill="none" stroke="rgb(179,179,179)" stroke-linejoin="round" d="M 2094,2745 L 2244,2745"/>
 <path fill="none" stroke="rgb(179,179,179)" stroke-linejoin="round" d="M 2094,1500 L 2244,1500"/>
 <path fill="none" stroke="rgb(179,179,179)" stroke-linejoin="round" d="M 2094,1500 L 2244,1500"/>
 <path fill="none" stroke="rgb(179,179,179)" stroke-linejoin="round" d="M 2244,10220 L 2244,1500"/>
 <path fill="none" stroke="rgb(0,0,0)" stroke-width="80" stroke-linejoin="round" stroke-dasharray="80,457" d="M 2244,10220 L 2249,10216 2374,10126 2495,10039 2611,9955 2724,9874 2832,9796 2936,9721 3037,9649 3134,9579 3228,9511 3319,9446 3408,9382 3494,9320 3578,9260 3660,9200 3741,9142 3821,9085 3900,9028 3978,8972 4055,8916 4132,8861 4210,8805 4287,8749 4366,8693 4445,8636 4525,8579 4605,8521 4686,8463 4766,8405 4847,8346 4928,8288 5008,8231 5088,8173 5167,8116 5246,8060 5323,8004 5399,7950 5473,7896 5546,7844 5618,7793 5687,7743 5754,7694 5819,7648 5881,7603 5941,7560 5998,7519 6053,7479 6106,7441 6156,7405 6205,7370 6252,7336 6297,7304 6340,7273 6382,7243 6422,7214 6461,7185 6500,7158 6537,7131 6573,7105 6609,7079 6644,7054 6679,7029 6713,7004 6747,6980 6781,6955 6816,6931 6850,6906 6884,6882 6918,6857 6953,6832 6988,6807 7023,6782 7058,6756 7094,6731 7130,6705 7166,6679 7203,6652 7241,6625 7279,6598 7317,6570 7357,6541 7397,6513 7438,6483 7480,6453 7522,6423 7565,6391 7609,6360 7654,6328 7699,6296 7744,6263 7789,6230 7835,6198 7880,6165 7926,6132 7971,6100 8016,6067 8061,6035 8105,6003 8148,5973 8191,5942 8233,5912 8274,5883 8314,5854 8353,5826 8391,5799 8427,5772 8463,5747 8497,5722 8531,5698 8563,5675 8595,5652 8626,5630 8656,5608 8685,5587 8714,5566 8742,5546 8770,5526 8798,5506 8825,5487 8852,5467 8878,5448 8904,5429 8931,5410 8957,5391 8983,5372 9009,5353 9035,5334 9062,5315 9089,5296 9116,5277 9143,5257 9170,5237 9198,5217 9227,5197 9255,5176 9285,5155 9314,5134 9345,5112 9375,5090 9407,5067 9439,5044 9472,5021 9505,4996 9539,4972 9574,4947 9610,4921 9647,4895 9684,4868 9721,4841 9759,4814 9797,4787 9835,4759 9874,4731 9912,4704 9950,4676 9989,4649 10027,4621 10064,4594 10102,4567 10138,4541 10175,4515 10210,4489 10245,4464 10279,4440 10312,4416 10344,4393 10376,4370 10406,4348 10436,4327 10465,4306 10493,4285 10521,4265 10549,4246 10575,4227 10602,4208 10628,4189 10653,4171 10678,4152 10703,4135 10728,4117 10752,4099 10777,4082 10801,4064 10825,4047 10849,4029 10874,4012 10898,3994 10922,3977 10947,3959 10972,3941 10997,3923 11022,3905 11048,3887 11074,3868 11100,3849 11127,3830 11155,3810 11183,3790 11211,3769 11240,3748 11270,3727 11301,3705 11332,3682 11364,3659 11397,3635 11431,3611 11465,3586 11500,3561 11536,3536 11572,3510 11608,3484 11644,3458 11681,3431 11717,3405 11754,3379 11791,3352 11827,3326 11863,3300 11899,3275 11934,3249 11969,3224 12003,3200 12036,3176 12069,3152 12101,3129 12132,3107 12162,3085 12191,3064 12220,3043 12248,3023 12276,3003 12303,2984 12329,2965 12355,2946 12380,2928 12406,2910 12430,2892 12455,2875 12479,2857 12503,2840 12527,2823 12550,2806 12574,2789 12598,2772 12621,2755 12645,2738 12668,2721 12692,2704 12716,2687 12740,2669 12765,2652 12790,2634 12815,2616 12840,2597 12866,2579 12892,2560 12919,2541 12947,2521 12975,2501 13003,2480 13032,2459 13062,2438 13093,2415 13125,2393 13157,2369 13190,2346 13224,2321 13258,2297 13293,2272 13329,2246 13364,2221 13400,2195 13436,2169 13472,2143 13508,2117 13544,2091 13580,2065 13616,2040 13651,2014 13686,1989 13720,1965 13754,1940 13787,1917 13819,1893 13850,1871 13881,1849 13911,1827 13940,1806 13968,1786 13996,1766 14024,1746 14050,1727 14076,1708 14102,1690 14127,1672 14152,1654 14177,1636 14201,1618 14225,1601 14249,1584 14273,1567 14296,1550 14319,1533 14343,1517"/>
 <path fill="none" stroke="rgb(54,144,244)" stroke-width="40" stroke-linejoin="round" d="M 2244,8016 L 2270,8012 2389,7992 2501,7972 2608,7953 2709,7935 2805,7916 2896,7898 2983,7880 3066,7862 3146,7844 3223,7827 3297,7809 3369,7792 3439,7775 3508,7758 3576,7741 3643,7724 3710,7707 3777,7690 3843,7673 3909,7656 3975,7638 4040,7621 4106,7603 4171,7585 4236,7567 4301,7549 4366,7530 4431,7511 4496,7492 4561,7472 4627,7452 4693,7431 4758,7410 4825,7388 4891,7366 4958,7343 5026,7319 5093,7295 5160,7270 5228,7246 5295,7220 5362,7195 5428,7169 5494,7144 5559,7118 5624,7092 5688,7066 5750,7041 5812,7015 5872,6990 5931,6965 5988,6941 6044,6917 6098,6893 6150,6870 6201,6847 6249,6825 6296,6804 6341,6783 6385,6763 6427,6743 6468,6723 6507,6704 6546,6686 6583,6667 6619,6649 6654,6631 6689,6614 6723,6596 6756,6579 6789,6562 6821,6545 6853,6528 6885,6512 6917,6495 6948,6478 6980,6461 7011,6444 7043,6427 7075,6410 7107,6393 7139,6376 7172,6358 7205,6340 7238,6322 7271,6304 7305,6285 7340,6266 7375,6247 7410,6227 7447,6206 7483,6185 7521,6164 7559,6142 7598,6120 7638,6097 7678,6073 7719,6049 7761,6024 7803,6000 7845,5975 7888,5950 7931,5924 7973,5899 8016,5873 8059,5847 8101,5821 8143,5796 8185,5770 8226,5745 8266,5720 8306,5696 8345,5672 8383,5648 8420,5625 8457,5602 8492,5581 8526,5559 8559,5538 8591,5518 8622,5498 8653,5479 8683,5459 8712,5441 8741,5422 8769,5404 8797,5386 8824,5369 8850,5351 8877,5334 8903,5317 8929,5300 8955,5283 8980,5267 9005,5250 9031,5233 9056,5216 9082,5200 9108,5183 9134,5166 9160,5148 9186,5131 9213,5113 9240,5096 9267,5077 9295,5059 9323,5040 9352,5021 9381,5002 9411,4982 9442,4961 9473,4941 9505,4919 9537,4897 9571,4875 9605,4852 9640,4828 9675,4804 9712,4780 9748,4755 9786,4730 9823,4704 9861,4678 9898,4653 9936,4627 9974,4601 10012,4575 10049,4550 10086,4524 10123,4499 10160,4474 10195,4450 10230,4426 10265,4402 10298,4379 10331,4357 10363,4335 10394,4313 10424,4292 10454,4272 10482,4252 10510,4233 10538,4214 10565,4195 10592,4176 10618,4158 10643,4141 10669,4123 10694,4106 10718,4088 10743,4071 10767,4054 10791,4038 10815,4021 10839,4004 10863,3987 10887,3971 10911,3954 10935,3937 10960,3920 10984,3903 11009,3885 11034,3868 11060,3850 11086,3832 11112,3813 11139,3794 11166,3775 11194,3756 11222,3736 11251,3716 11281,3695 11311,3673 11342,3651 11374,3629 11407,3606 11440,3582 11474,3558 11509,3534 11544,3509 11580,3484 11616,3458 11652,3433 11689,3407 11725,3381 11761,3355 11798,3330 11834,3304 11870,3279 11905,3253 11941,3229 11975,3204 12009,3180 12042,3156 12075,3133 12107,3111 12138,3089 12168,3067 12197,3047 12226,3026 12254,3006 12281,2987 12308,2968 12334,2949 12360,2931 12386,2913 12411,2895 12435,2877 12460,2860 12484,2843 12508,2825 12532,2809 12555,2792 12579,2775 12602,2758 12626,2741 12649,2725 12673,2708 12697,2691 12721,2674 12745,2657 12769,2639 12794,2622 12819,2604 12844,2586 12870,2567 12896,2549 12923,2530 12950,2510 12978,2490 13007,2470 13036,2449 13066,2428 13096,2406 13128,2383 13160,2360 13193,2336 13227,2312 13261,2288 13296,2263 13331,2238 13367,2212 13403,2187 13439,2161 13475,2135 13511,2109 13547,2084 13582,2058 13618,2033 13653,2008 13688,1983 13722,1958 13756,1934 13789,1910 13821,1887 13852,1865 13883,1843 13913,1822 13942,1801 13970,1780 13998,1760 14025,1741 14052,1722 14078,1703 14104,1685 14129,1667 14154,1649 14178,1631 14203,1614 14227,1597 14250,1580 14274,1563 14297,1546 14321,1529 14344,1512"/>
 <path fill="none" stroke="rgb(53,82,105)" stroke-width="40" stroke-linejoin="round" d="M 2244,7795 L 2249,7794 2374,7776 2495,7758 2611,7741 2724,7723 2832,7706 2936,7688 3037,7671 3134,7653 3228,7636 3319,7619 3408,7601 3494,7583 3578,7565 3660,7547 3741,7529 3821,7510 3900,7491 3978,7471 4055,7451 4132,7430 4210,7409 4287,7388 4366,7366 4445,7343 4525,7319 4605,7295 4686,7271 4766,7246 4847,7221 4928,7196 5008,7170 5088,7144 5167,7118 5246,7093 5323,7067 5399,7041 5473,7016 5546,6990 5618,6965 5687,6941 5754,6917 5819,6893 5881,6870 5941,6847 5998,6825 6053,6804 6106,6783 6156,6763 6205,6743 6252,6723 6297,6704 6340,6685 6382,6667 6422,6649 6461,6631 6500,6614 6537,6596 6573,6579 6609,6562 6644,6545 6679,6528 6713,6511 6747,6495 6781,6478 6816,6461 6850,6444 6884,6428 6918,6410 6953,6393 6988,6376 7023,6358 7058,6340 7094,6322 7130,6304 7166,6285 7203,6266 7241,6247 7279,6227 7317,6206 7357,6185 7397,6164 7438,6142 7480,6120 7522,6097 7565,6073 7609,6049 7654,6024 7699,6000 7744,5975 7789,5950 7835,5924 7880,5899 7926,5873 7971,5847 8016,5821 8061,5796 8105,5770 8148,5745 8191,5720 8233,5696 8274,5672 8314,5648 8353,5625 8391,5602 8427,5581 8463,5559 8497,5538 8531,5518 8563,5498 8595,5479 8626,5459 8656,5441 8685,5422 8714,5404 8742,5386 8770,5369 8798,5351 8825,5334 8852,5317 8878,5300 8904,5283 8931,5267 8957,5250 8983,5233 9009,5216 9035,5200 9062,5183 9089,5166 9116,5148 9143,5131 9170,5113 9198,5096 9227,5077 9255,5059 9285,5040 9314,5021 9345,5002 9375,4982 9407,4961 9439,4941 9472,4919 9505,4897 9539,4875 9574,4852 9610,4828 9647,4804 9684,4780 9721,4755 9759,4730 9797,4704 9835,4678 9874,4653 9912,4627 9950,4601 9989,4575 10027,4550 10064,4524 10102,4499 10138,4474 10175,4450 10210,4426 10245,4402 10279,4379 10312,4357 10344,4335 10376,4313 10406,4292 10436,4272 10465,4252 10493,4233 10521,4214 10549,4195 10575,4176 10602,4158 10628,4141 10653,4123 10678,4106 10703,4088 10728,4071 10752,4054 10777,4038 10801,4021 10825,4004 10849,3987 10874,3971 10898,3954 10922,3937 10947,3920 10972,3903 10997,3885 11022,3868 11048,3850 11074,3832 11100,3813 11127,3794 11155,3775 11183,3756 11211,3736 11240,3716 11270,3695 11301,3673 11332,3651 11364,3629 11397,3606 11431,3582 11465,3558 11500,3534 11536,3509 11572,3484 11608,3458 11644,3433 11681,3407 11717,3381 11754,3355 11791,3330 11827,3304 11863,3279 11899,3253 11934,3229 11969,3204 12003,3180 12036,3156 12069,3133 12101,3111 12132,3089 12162,3067 12191,3047 12220,3026 12248,3006 12276,2987 12303,2968 12329,2949 12355,2931 12380,2913 12406,2895 12430,2877 12455,2860 12479,2843 12503,2825 12527,2809 12550,2792 12574,2775 12598,2758 12621,2741 12645,2725 12668,2708 12692,2691 12716,2674 12740,2657 12765,2639 12790,2622 12815,2604 12840,2586 12866,2567 12892,2549 12919,2530 12947,2510 12975,2490 13003,2470 13032,2449 13062,2428 13093,2406 13125,2383 13157,2360 13190,2336 13224,2312 13258,2288 13293,2263 13329,2238 13364,2212 13400,2187 13436,2161 13472,2135 13508,2109 13544,2084 13580,2058 13616,2033 13651,2008 13686,1983 13720,1958 13754,1934 13787,1910 13819,1887 13850,1865 13881,1843 13911,1822 13940,1801 13968,1780 13996,1760 14024,1741 14050,1722 14076,1703 14102,1685 14127,1667 14152,1649 14177,1631 14201,1614 14225,1597 14249,1580 14273,1563 14296,1546 14319,1529 14343,1512"/>
 <path fill="none" stroke="rgb(19,37,51)" stroke-width="40" stroke-linejoin="round" d="M 2244,7243 L 2288,7237 2373,7226 2458,7215 2542,7203 2625,7192 2708,7181 2790,7169 2872,7158 2953,7146 3033,7134 3113,7123 3192,7110 3271,7098 3349,7086 3426,7073 3503,7061 3580,7048 3656,7034 3733,7021 3808,7007 3884,6993 3960,6979 4035,6965 4111,6950 4187,6934 4262,6919 4338,6903 4414,6887 4490,6870 4566,6853 4643,6835 4719,6817 4796,6799 4872,6781 4948,6762 5024,6743 5099,6724 5174,6705 5248,6686 5321,6666 5394,6647 5465,6628 5536,6608 5605,6589 5673,6570 5739,6551 5804,6532 5868,6513 5930,6495 5990,6477 6048,6459 6105,6441 6161,6423 6215,6406 6268,6388 6321,6371 6372,6353 6423,6335 6473,6317 6523,6299 6573,6281 6623,6262 6672,6243 6722,6224 6772,6204 6823,6184 6874,6163 6926,6142 6979,6120 7033,6097 7087,6074 7143,6050 7199,6026 7255,6001 7312,5977 7369,5951 7426,5926 7483,5900 7540,5874 7596,5848 7652,5822 7708,5797 7762,5771 7816,5746 7869,5721 7920,5696 7971,5672 8019,5648 8067,5625 8112,5602 8156,5580 8199,5559 8240,5538 8279,5518 8318,5498 8355,5478 8391,5459 8426,5440 8460,5422 8493,5404 8526,5386 8557,5369 8589,5351 8619,5334 8649,5317 8679,5300 8709,5283 8738,5267 8768,5250 8797,5233 8827,5216 8856,5200 8886,5183 8915,5166 8945,5148 8976,5131 9005,5114 9036,5096 9067,5078 9099,5059 9131,5040 9163,5021 9196,5002 9230,4982 9264,4962 9299,4941 9334,4919 9371,4897 9408,4875 9446,4852 9484,4828 9524,4804 9563,4780 9604,4755 9644,4729 9685,4704 9726,4678 9767,4653 9808,4627 9849,4601 9890,4575 9931,4550 9971,4524 10011,4499 10050,4474 10088,4450 10126,4426 10163,4402 10199,4379 10233,4357 10267,4335 10300,4313 10333,4292 10364,4272 10394,4252 10424,4233 10453,4214 10482,4195 10510,4176 10537,4158 10564,4141 10591,4123 10617,4106 10643,4088 10669,4071 10694,4054 10719,4038 10744,4021 10769,4004 10794,3987 10820,3971 10845,3954 10870,3937 10895,3920 10921,3903 10947,3885 10973,3868 11000,3850 11027,3832 11054,3813 11082,3794 11110,3775 11139,3756 11168,3736 11198,3716 11229,3695 11260,3673 11292,3651 11325,3629 11359,3606 11393,3582 11429,3558 11464,3534 11501,3509 11537,3484 11574,3458 11611,3433 11649,3407 11686,3381 11724,3355 11761,3330 11798,3304 11835,3279 11871,3253 11907,3229 11942,3204 11977,3180 12011,3156 12044,3133 12077,3111 12108,3089 12139,3067 12169,3047 12198,3026 12227,3006 12255,2987 12282,2968 12309,2949 12335,2931 12361,2913 12386,2895 12412,2877 12436,2860 12461,2843 12485,2825 12509,2809 12533,2792 12557,2775 12581,2758 12605,2741 12629,2725 12652,2708 12677,2691 12701,2674 12725,2657 12750,2639 12775,2622 12800,2604 12826,2586 12852,2567 12879,2549 12906,2530 12933,2510 12961,2490 12990,2470 13020,2449 13050,2428 13081,2406 13113,2383 13145,2360 13179,2336 13213,2312 13247,2288 13282,2263 13318,2238 13354,2212 13390,2187 13426,2161 13462,2135 13499,2109 13535,2084 13571,2058 13607,2033 13642,2008 13677,1983 13712,1958 13746,1934 13779,1910 13811,1887 13843,1865 13874,1843 13904,1822 13933,1801 13962,1780 13990,1760 14017,1741 14044,1722 14070,1703 14096,1685 14121,1667 14146,1649 14171,1631 14195,1614 14219,1597 14243,1580 14267,1563 14290,1546 14314,1529 14337,1512"/>
 <text class="SVGTextShape"><tspan class="TextParagraph" font-family="Serif, serif" font-size="353px" font-weight="400"><tspan class="TextPosition" x="1860" y="10840"><tspan fill="rgb(0,0,0)" stroke="none" style="white-space: pre">1E+0</tspan></tspan></tspan></text>
 <text class="SVGTextShape"><tspan class="TextParagraph" font-family="Serif, serif" font-size="353px" font-weight="400"><tspan class="TextPosition" x="3592" y="10840"><tspan fill="rgb(0,0,0)" stroke="none" style="white-space: pre">1E+1</tspan></tspan></tspan></text>
 <text class="SVGTextShape"><tspan class="TextParagraph" font-family="Serif, serif" font-size="353px" font-weight="400"><tspan class="TextPosition" x="5324" y="10840"><tspan fill="rgb(0,0,0)" stroke="none" style="white-space: pre">1E+2</tspan></tspan></tspan></text>
 <text class="SVGTextShape"><tspan class="TextParagraph" font-family="Serif, serif" font-size="353px" font-weight="400"><tspan class="TextPosition" x="7056" y="10840"><tspan fill="rgb(0,0,0)" stroke="none" style="white-space: pre">1E+3</tspan></tspan></tspan></text>
 <text class="SVGTextShape"><tspan class="TextParagraph" font-family="Serif, serif" font-size="353px" font-weight="400"><tspan class="TextPosition" x="8788" y="10840"><tspan fill="rgb(0,0,0)" stroke="none" style="white-space: pre">1E+4</tspan></tspan></tspan></text>
 <text class="SVGTextShape"><tspan class="TextParagraph" font-family="Serif, serif" font-size="353px" font-weight="400"><tspan class="TextPosition" x="10518" y="10840"><tspan fill="rgb(0,0,0)" stroke="none" style="white-space: pre">1E+5</tspan></tspan></tspan></text>
 <text class="SVGTextShape"><tspan class="TextParagraph" font-family="Serif, serif" font-size="353px" font-weight="400"><tspan class="TextPosition" x="12251" y="10840"><tspan fill="rgb(0,0,0)" stroke="none" style="white-space: pre">1E+6</tspan></tspan></tspan></text>
 <text class="SVGTextShape"><tspan class="TextParagraph" font-family="Serif, serif" font-size="353px" font-weight="400"><tspan class="TextPosition" x="13983" y="10840"><tspan fill="rgb(0,0,0)" stroke="none" style="white-space: pre">1E+7</tspan></tspan></tspan></text>
 <text class="SVGTextShape"><tspan class="TextParagraph" font-family="Serif, serif" font-size="353px" font-weight="400"><tspan class="TextPosition" x="1227" y="10352"><tspan fill="rgb(0,0,0)" stroke="none" style="white-space: pre">1E+0</tspan></tspan></tspan></text>
 <text class="SVGTextShape"><tspan class="TextParagraph" font-family="Serif, serif" font-size="353px" font-weight="400"><tspan class="TextPosition" x="1227" y="9106"><tspan fill="rgb(0,0,0)" stroke="none" style="white-space: pre">1E+1</tspan></tspan></tspan></text>
 <text class="SVGTextShape"><tspan class="TextParagraph" font-family="Serif, serif" font-size="353px" font-weight="400"><tspan class="TextPosition" x="1227" y="7860"><tspan fill="rgb(0,0,0)" stroke="none" style="white-space: pre">1E+2</tspan></tspan></tspan></text>
 <text class="SVGTextShape"><tspan class="TextParagraph" font-family="Serif, serif" font-size="353px" font-weight="400"><tspan class="TextPosition" x="1227" y="6614"><tspan fill="rgb(0,0,0)" stroke="none" style="white-space: pre">1E+3</tspan></tspan></tspan></text>
 <text class="SVGTextShape"><tspan class="TextParagraph" font-family="Serif, serif" font-size="353px" font-weight="400"><tspan class="TextPosition" x="1227" y="5369"><tspan fill="rgb(0,0,0)" stroke="none" style="white-space: pre">1E+4</tspan></tspan></tspan></text>
 <text class="SVGTextShape"><tspan class="TextParagraph" font-family="Serif, serif" font-size="353px" font-weight="400"><tspan class="TextPosition" x="1227" y="4123"><tspan fill="rgb(0,0,0)" stroke="none" style="white-space: pre">1E+5</tspan></tspan></tspan></text>
 <text class="SVGTextShape"><tspan class="TextParagraph" font-family="Serif, serif" font-size="353px" font-weight="400"><tspan class="TextPosition" x="1227" y="2877"><tspan fill="rgb(0,0,0)" stroke="none" style="white-space: pre">1E+6</tspan></tspan></tspan></text>
 <text class="SVGTextShape"><tspan class="TextParagraph" font-family="Serif, serif" font-size="353px" font-weight="400"><tspan class="TextPosition" x="1227" y="1632"><tspan fill="rgb(0,0,0)" stroke="none" style="white-space: pre">1E+7</tspan></tspan></tspan></text>
 <text class="SVGTextShape"><tspan class="TextParagraph" font-family="Serif, serif" font-size="459px" font-weight="400"><tspan class="TextPosition" x="2867" y="977"><tspan fill="rgb(0,0,0)" stroke="none" style="white-space: pre">Allocation limit for a target safe allocation (p = 1E-4)</tspan></tspan></tspan></text>
 <path fill="none" stroke="rgb(19,37,51)" stroke-width="40" stroke-linejoin="round" d="M 14702,5307 L 16302,5307"/>
 <path fill="none" stroke="rgb(53,82,105)" stroke-width="40" stroke-linejoin="round" d="M 14702,5806 L 16302,5806"/>
 <path fill="none" stroke="rgb(54,144,244)" stroke-width="40" stroke-linejoin="round" d="M 14702,6304 L 16302,6304"/>
 <path fill="none" stroke="rgb(0,0,0)" stroke-width="80" stroke-linejoin="round" stroke-dasharray="80,457" d="M 14702,6803 L 16302,6803"/>
 <text class="SVGTextShape"><tspan class="TextParagraph" font-family="Serif, serif" font-size="353px" font-weight="400"><tspan class="TextPosition" x="16402" y="5439"><tspan fill="rgb(0,0,0)" stroke="none" style="white-space: pre">t &lt; 1E-50</tspan></tspan></tspan></text>
 <text class="SVGTextShape"><tspan class="TextParagraph" font-family="Serif, serif" font-size="353px" font-weight="400"><tspan class="TextPosition" x="16402" y="5938"><tspan fill="rgb(0,0,0)" stroke="none" style="white-space: pre">t &lt; 4E-15</tspan></tspan></tspan></text>
 <text class="SVGTextShape"><tspan class="TextParagraph" font-family="Serif, serif" font-size="353px" font-weight="400"><tspan class="TextPosition" x="16402" y="6436"><tspan fill="rgb(0,0,0)" stroke="none" style="white-space: pre">t &lt; 1E-9</tspan></tspan></tspan></text>
 <text class="SVGTextShape"><tspan class="TextParagraph" font-family="Serif, serif" font-size="353px" font-weight="400"><tspan class="TextPosition" x="16402" y="6935"><tspan fill="rgb(0,0,0)" stroke="none" style="white-space: pre">N</tspan></tspan></tspan></text>
 <text class="SVGTextShape"><tspan class="TextParagraph" font-family="Serif, serif" font-size="318px" font-weight="400"><tspan class="TextPosition" x="7580" y="11516"><tspan fill="rgb(0,0,0)" stroke="none" style="white-space: pre">N (in kw)</tspan></tspan></tspan></text>
 <text class="SVGTextShape" transform="rotate(-90 -18282 -5279)"><tspan class="TextParagraph" font-family="Serif, serif" font-size="318px" font-weight="400"><tspan class="TextPosition" x="877" y="6435"><tspan fill="rgb(0,0,0)" stroke="none" style="white-space: pre">l (in kw)</tspan></tspan></tspan></text>
</svg>